*** Darwin 5x15 ***
Turn = 0.
  012345678901234
0 ...............
1 ........rf..r..
2 rr.....t.......
3 r........f.....
4 .............r.

Turn = 1.
  012345678901234
0 ...............
1 ........r..r...
2 rr.....t.r.....
3 .r.......f...r.
4 ...............

Turn = 2.
  012345678901234
0 ...............
1 .........rr....
2 rr.....t.r...r.
3 ..r.......r....
4 ...............

*** Darwin 9x15 ***
Turn = 0.
  012345678901234
0 .f...........h.
1 r.............r
2 ..f.f..........
3 ..t.......h...h
4 .........ft....
5 ..........t....
6 .r.............
7 ..f.....hh.....
8 .f...t.........

Turn = 4.
  012345678901234
0 rr............r
1 ..............r
2 ..t.f..........
3 ..t...h...h....
4 r........tt....
5 ..........t....
6 ...............
7 ..f............
8 .f...t..hh.....

Turn = 8.
  012345678901234
0 r..r.r.........
1 ..........r....
2 ..t.f.........r
3 ..th..h........
4 .........tt....
5 ..........t....
6 ...............
7 ..f............
8 .f...t..hh.....

Turn = 12.
  012345678901234
0 ...r...r.r.....
1 ......r........
2 ..t.f..........
3 ..ttt..........
4 .........tt....
5 ..........t....
6 ..............r
7 ..f............
8 .f...t..hh.....

*** Darwin 11x1 ***
Turn = 0.
  0
0 f
1 r
2 t
3 h
4 r
5 h
6 f
7 r
8 .
9 h
0 .

Turn = 2.
  0
0 r
1 r
2 t
3 t
4 t
5 h
6 f
7 .
8 r
9 .
0 h

Turn = 4.
  0
0 r
1 r
2 r
3 t
4 t
5 t
6 t
7 .
8 .
9 r
0 r

Turn = 6.
  0
0 r
1 r
2 t
3 t
4 t
5 t
6 t
7 .
8 .
9 r
0 r

Turn = 8.
  0
0 r
1 r
2 t
3 t
4 t
5 t
6 t
7 .
8 .
9 r
0 r

Turn = 10.
  0
0 r
1 t
2 t
3 t
4 t
5 t
6 t
7 .
8 .
9 r
0 r

Turn = 12.
  0
0 r
1 r
2 r
3 r
4 r
5 t
6 t
7 r
8 .
9 .
0 r

*** Darwin 1x5 ***
Turn = 0.
  01234
0 t.ft.

Turn = 1.
  01234
0 t.ft.

Turn = 2.
  01234
0 t.tt.

Turn = 3.
  01234
0 t.tt.

Turn = 4.
  01234
0 t.tt.

*** Darwin 5x16 ***
Turn = 0.
  0123456789012345
0 .h.fr...h.......
1 r...h........hr.
2 ...r............
3 .......tttht.f..
4 f..f...f...f..f.

Turn = 2.
  0123456789012345
0 r..f..r.h.....r.
1 r.........h.....
2 .r...........h..
3 ....h..ttt.t.f..
4 f..f...t...f..f.

Turn = 4.
  0123456789012345
0 .r.f...rr.h.r...
1 ..r.............
2 r............h..
3 .......ttt.t.f..
4 f..fh..t...t..f.

Turn = 6.
  0123456789012345
0 r.rr...r.rrr....
1 ....r...........
2 .............h..
3 .......ttt.t.f..
4 f..fh..t...t..f.

Turn = 8.
  0123456789012345
0 .rrr....r.r.....
1 ......r..r......
2 ...........r.h..
3 .......ttt.t.f..
4 f..fh..t...t..f.

Turn = 10.
  0123456789012345
0 ...r....rr......
1 .rr.....r.......
2 .........t...h..
3 .......ttt.rrr..
4 f..fh..t...t..f.

Turn = 12.
  0123456789012345
0 .r.......r......
1 .........r......
2 ........tr...r..
3 .rr....ttt.r.r..
4 f..fh..t...rr.f.

Turn = 14.
  0123456789012345
0 r..........r....
1 ..........r.....
2 ........tt.....r
3 .......ttrr....r
4 frrfh..t..r..rf.

*** Darwin 10x10 ***
Turn = 0.
  0123456789
0 ......r...
1 .......tf.
2 ......r...
3 .h..f....r
4 t.........
5 ..........
6 ..ff...t.h
7 ..r.t...t.
8 ..........
9 ...f..rrrf

Turn = 3.
  0123456789
0 ..........
1 .....r.tt.
2 ........r.
3 ...hf.r...
4 t.........
5 ..........
6 ...r...rt.
7 ..r.t.rrt.
8 ...r......
9 ...f..r..f

Turn = 6.
  0123456789
0 ..........
1 ..r....ttr
2 ..........
3 ...rrr.r..
4 t.....rr..
5 ..........
6 ......r.t.
7 ....t...t.
8 ..r..r....
9 ..r.r....f

Turn = 9.
  0123456789
0 ........r.
1 r...r.rrt.
2 ......r...
3 ......r...
4 t.........
5 ...r.r....
6 .....r..rr
7 ....t...t.
8 r...t.....
9 r........f

*** Darwin 4x9 ***
Turn = 0.
  012345678
0 ..fr..t..
1 ..h.r....
2 .h.t.....
3 ...fh....

Turn = 1.
  012345678
0 ..f.r.t..
1 ...h.....
2 h..tr....
3 ...fh....

Turn = 2.
  012345678
0 ..f..rt..
1 ....h....
2 h..tr....
3 ...tr....

Turn = 3.
  012345678
0 ..f..r.r.
1 .....h...
2 h..tr....
3 ...rr....

Turn = 4.
  012345678
0 ..f...r.r
1 ......h..
2 h..tt....
3 ...rr....

*** Darwin 16x7 ***
Turn = 0.
  0123456
0 .t.....
1 ....t.t
2 ......f
3 ..rt...
4 .....h.
5 ...r...
6 .f....f
7 .......
8 ..f....
9 f......
0 r...r..
1 ...f...
2 hh.f...
3 .h.f..h
4 .f...f.
5 .......

Turn = 1.
  0123456
0 .t.....
1 ....t.t
2 ......t
3 ..r....
4 ...rh..
5 ....r..
6 .f....f
7 .......
8 ..f....
9 f...r..
0 r......
1 ...f...
2 hh.f...
3 h..f...
4 .f...fh
5 .......

Turn = 2.
  0123456
0 .t.....
1 ....t.t
2 ......t
3 ...r...
4 ...h...
5 ...r.r.
6 .f....f
7 .......
8 ..f.r..
9 r......
0 r......
1 ...f...
2 hh.f...
3 h..f...
4 .f...f.
5 ......h

Turn = 3.
  0123456
0 .t.....
1 ....t.t
2 ......t
3 ....r..
4 ..h....
5 ......r
6 .f.r..f
7 ....r..
8 ..f....
9 r......
0 r......
1 ...f...
2 hh.f...
3 h..f...
4 .f...f.
5 ......h

Turn = 4.
  0123456
0 .t.....
1 ....t.t
2 ......t
3 .....r.
4 .h.....
5 ......r
6 .f..r.f
7 ...r...
8 ..f....
9 r......
0 .r.....
1 ...f...
2 hh.f...
3 h..f...
4 .f...f.
5 ......h

Turn = 5.
  0123456
0 .t.....
1 ....t.t
2 ......t
3 ......r
4 h......
5 ....r.r
6 .f....r
7 .......
8 ..fr...
9 r......
0 ..r....
1 ...f...
2 hh.f...
3 h..f...
4 .f...f.
5 ......h

Turn = 6.
  0123456
0 .t.....
1 ....t.t
2 ......t
3 ......r
4 h...r..
5 ......r
6 .f....r
7 .......
8 ..f....
9 ...r...
0 r..r...
1 ...f...
2 hh.f...
3 h..f...
4 .f...f.
5 ......h

Turn = 7.
  0123456
0 .t.....
1 ....t.t
2 ......r
3 ....r.r
4 h......
5 .....r.
6 .f.....
7 ......r
8 ..f....
9 ...r...
0 ....r..
1 r..f...
2 hh.f...
3 h..f...
4 .f...f.
5 ......h

Turn = 8.
  0123456
0 .t.....
1 ....t.t
2 ....r.r
3 ......r
4 h......
5 ....r..
6 .f.....
7 .......
8 ..f...r
9 ....r..
0 .....r.
1 r..f...
2 rr.f...
3 h..f...
4 .f...f.
5 ......h

Turn = 9.
  0123456
0 .t.....
1 ....t.t
2 ....tr.
3 .....r.
4 h......
5 ...r...
6 .f.....
7 .......
8 ..f....
9 .....rr
0 ......r
1 rr.f...
2 r..f...
3 h..f...
4 .f...f.
5 ......h

Turn = 10.
  0123456
0 .t.....
1 ....t.t
2 ....rr.
3 ....r..
4 h......
5 ..r....
6 .f.....
7 .......
8 ..f....
9 .....rr
0 .r....r
1 r..f...
2 r..f...
3 h..f...
4 .f...f.
5 ......h

Turn = 11.
  0123456
0 .t.....
1 ....t.t
2 ....rr.
3 ...r...
4 h......
5 .r.....
6 .f.....
7 .......
8 ..f..r.
9 .r....r
0 ......r
1 r..f...
2 .r.f...
3 h..f...
4 .f...f.
5 ......h

Turn = 12.
  0123456
0 .t.....
1 ....trt
2 ....r..
3 ..r....
4 h......
5 r......
6 .f.....
7 .....r.
8 .rf....
9 ......r
0 .....r.
1 .r.f...
2 ..rf...
3 h..f...
4 .f...f.
5 ......h

*** Darwin 4x10 ***
Turn = 0.
  0123456789
0 .f.r......
1 htf.h...h.
2 ..t......r
3 r.f...f.t.

Turn = 1.
  0123456789
0 .t..r...h.
1 htt.h.....
2 ..t......r
3 r.f...f.t.

Turn = 2.
  0123456789
0 .t..hr..h.
1 htt.......
2 ..t.......
3 r.f...f.tr

*** Darwin 8x19 ***
Turn = 0.
  0123456789012345678
0 ........r.....r....
1 ...................
2 ...................
3 ..t........r.......
4 ...................
5 ...................
6 ...............f...
7 ...................

Turn = 1.
  0123456789012345678
0 .......r.....r.....
1 ...................
2 ...................
3 ..t.........r......
4 ...................
5 ...................
6 ...............f...
7 ...................

Turn = 2.
  0123456789012345678
0 ......r.....r......
1 ...................
2 ...................
3 ..t..........r.....
4 ...................
5 ...................
6 ...............f...
7 ...................

Turn = 3.
  0123456789012345678
0 .....r.....r.......
1 ...................
2 ...................
3 ..t...........r....
4 ...................
5 ...................
6 ...............f...
7 ...................

Turn = 4.
  0123456789012345678
0 ....r.....r........
1 ...................
2 ...................
3 ..t............r...
4 ...................
5 ...................
6 ...............f...
7 ...................

Turn = 5.
  0123456789012345678
0 ...r.....r.........
1 ...................
2 ...................
3 ..t.............r..
4 ...................
5 ...................
6 ...............f...
7 ...................

Turn = 6.
  0123456789012345678
0 ..r.....r..........
1 ...................
2 ...................
3 ..t..............r.
4 ...................
5 ...................
6 ...............f...
7 ...................

Turn = 7.
  0123456789012345678
0 .r.....r...........
1 ...................
2 ...................
3 ..t...............r
4 ...................
5 ...................
6 ...............f...
7 ...................

Turn = 8.
  0123456789012345678
0 r.....r............
1 ...................
2 ...................
3 ..t...............r
4 ...................
5 ...................
6 ...............f...
7 ...................

Turn = 9.
  0123456789012345678
0 r....r.............
1 ...................
2 ...................
3 ..t................
4 ..................r
5 ...................
6 ...............f...
7 ...................

Turn = 10.
  0123456789012345678
0 ....r..............
1 r..................
2 ...................
3 ..t................
4 ...................
5 ..................r
6 ...............f...
7 ...................

Turn = 11.
  0123456789012345678
0 ...r...............
1 ...................
2 r..................
3 ..t................
4 ...................
5 ...................
6 ...............f..r
7 ...................

Turn = 12.
  0123456789012345678
0 ..r................
1 ...................
2 ...................
3 r.t................
4 ...................
5 ...................
6 ...............f...
7 ..................r

Turn = 13.
  0123456789012345678
0 .r.................
1 ...................
2 ...................
3 ..t................
4 r..................
5 ...................
6 ...............f...
7 ..................r

Turn = 14.
  0123456789012345678
0 r..................
1 ...................
2 ...................
3 ..t................
4 ...................
5 r..................
6 ...............f...
7 .................r.

Turn = 15.
  0123456789012345678
0 r..................
1 ...................
2 ...................
3 ..t................
4 ...................
5 ...................
6 r..............f...
7 ................r..

*** Darwin 20x7 ***
Turn = 0.
  0123456
0 .t..r..
1 ...t...
2 .......
3 .......
4 .......
5 .......
6 .......
7 .......
8 ......f
9 ...t.f.
0 .......
1 ...h.h.
2 .f.....
3 .r.t...
4 .......
5 .......
6 ....r..
7 r.....t
8 t......
9 ..t..f.

Turn = 1.
  0123456
0 .t..r..
1 ...t...
2 .......
3 .......
4 .......
5 .......
6 .......
7 .......
8 ......f
9 ...t.f.
0 ...h...
1 ......h
2 .f.....
3 r..t...
4 .......
5 .......
6 r......
7 ....r.t
8 t......
9 ..t..f.

Turn = 2.
  0123456
0 .t...r.
1 ...t...
2 .......
3 .......
4 .......
5 .......
6 .......
7 .......
8 ......f
9 ...t.f.
0 ...h...
1 ......h
2 .f.....
3 r..t...
4 .......
5 r......
6 .......
7 ......t
8 t...r..
9 ..t..f.

Turn = 3.
  0123456
0 .t....r
1 ...t...
2 .......
3 .......
4 .......
5 .......
6 .......
7 .......
8 ......f
9 ...t.f.
0 ...t...
1 ......h
2 .f.....
3 ...t...
4 r......
5 r......
6 .......
7 ......t
8 t......
9 ..t.rf.

Turn = 4.
  0123456
0 .t....r
1 ...t...
2 .......
3 .......
4 .......
5 .......
6 .......
7 .......
8 ......f
9 ...t.f.
0 ...t...
1 ......h
2 .f.....
3 ...t...
4 r......
5 .r.....
6 .......
7 ......t
8 t......
9 ..t.rf.

Turn = 5.
  0123456
0 .t.....
1 ...t..r
2 .......
3 .......
4 .......
5 .......
6 .......
7 .......
8 ......f
9 ...t.f.
0 ...t...
1 ......h
2 .f.....
3 ...t...
4 r......
5 ..r....
6 .......
7 ......t
8 t......
9 ..tr.f.

Turn = 6.
  0123456
0 .t.....
1 ...t...
2 ......r
3 .......
4 .......
5 .......
6 .......
7 .......
8 ......f
9 ...t.f.
0 ...t...
1 ......h
2 .f.....
3 ...t...
4 .......
5 r..r...
6 .......
7 ......t
8 t......
9 ..rr.f.

*** Darwin 15x2 ***
Turn = 0.
  01
0 rr
1 .f
2 rf
3 tt
4 t.
5 fh
6 ft
7 rr
8 r.
9 h.
0 tr
1 t.
2 rf
3 .r
4 h.

Turn = 1.
  01
0 rr
1 rf
2 .f
3 tt
4 t.
5 ft
6 ft
7 r.
8 rr
9 r.
0 rr
1 t.
2 rf
3 .r
4 .h

Turn = 2.
  01
0 rr
1 rf
2 .t
3 tt
4 t.
5 ft
6 ft
7 r.
8 r.
9 rr
0 t.
1 rr
2 rr
3 .r
4 .h

Turn = 3.
  01
0 rr
1 rr
2 .t
3 tt
4 t.
5 tt
6 tt
7 .r
8 r.
9 r.
0 tr
1 rr
2 rr
3 .r
4 .h

Turn = 4.
  01
0 rr
1 rt
2 .t
3 tt
4 t.
5 tt
6 tt
7 .r
8 r.
9 r.
0 tr
1 rr
2 rr
3 r.
4 .h

Turn = 5.
  01
0 rr
1 tt
2 .t
3 tt
4 t.
5 tt
6 tt
7 .t
8 r.
9 .r
0 rr
1 tr
2 tr
3 r.
4 .h

Turn = 6.
  01
0 rr
1 tt
2 .t
3 tt
4 t.
5 tt
6 tt
7 rt
8 ..
9 .r
0 rr
1 rr
2 rr
3 r.
4 .h

Turn = 7.
  01
0 tr
1 tt
2 .t
3 tt
4 t.
5 tt
6 rt
7 rt
8 ..
9 .r
0 rr
1 rr
2 rr
3 r.
4 .h

Turn = 8.
  01
0 tr
1 tt
2 .t
3 tt
4 t.
5 tt
6 rt
7 rt
8 ..
9 .r
0 rr
1 rr
2 r.
3 .r
4 rh

Turn = 9.
  01
0 tt
1 tt
2 .t
3 tt
4 t.
5 tt
6 rt
7 rt
8 .r
9 rr
0 r.
1 ..
2 .r
3 rr
4 rr

Turn = 10.
  01
0 tt
1 tt
2 .t
3 tt
4 t.
5 tt
6 tt
7 tr
8 rr
9 rr
0 ..
1 ..
2 .r
3 rr
4 rr

Turn = 11.
  01
0 tt
1 tt
2 .t
3 tt
4 t.
5 tt
6 tt
7 rr
8 rr
9 rr
0 ..
1 ..
2 r.
3 rr
4 rr

Turn = 12.
  01
0 tt
1 tt
2 .t
3 tt
4 t.
5 tt
6 tt
7 rr
8 rr
9 rr
0 ..
1 ..
2 r.
3 rr
4 rr

Turn = 13.
  01
0 tt
1 tt
2 .t
3 tt
4 t.
5 tt
6 tr
7 rr
8 rr
9 r.
0 r.
1 r.
2 ..
3 rr
4 rr

Turn = 14.
  01
0 tt
1 tt
2 .t
3 tt
4 t.
5 tt
6 tt
7 rt
8 rr
9 r.
0 r.
1 r.
2 rr
3 .r
4 r.

Turn = 15.
  01
0 tt
1 tt
2 .t
3 tt
4 t.
5 tt
6 tt
7 tr
8 rr
9 r.
0 .r
1 rr
2 rr
3 ..
4 r.

Turn = 16.
  01
0 tt
1 tt
2 .t
3 tt
4 t.
5 tt
6 tt
7 rr
8 rr
9 r.
0 .r
1 rr
2 rr
3 ..
4 .r

Turn = 17.
  01
0 tt
1 tt
2 .t
3 tt
4 t.
5 tt
6 tt
7 rr
8 rr
9 rr
0 ..
1 rr
2 .r
3 r.
4 .r

Turn = 18.
  01
0 tt
1 tt
2 .t
3 tt
4 t.
5 tt
6 tt
7 rr
8 rr
9 rr
0 ..
1 .r
2 r.
3 .r
4 rr

Turn = 19.
  01
0 tt
1 tt
2 .t
3 tt
4 t.
5 tt
6 tt
7 rt
8 rr
9 rr
0 ..
1 r.
2 ..
3 rr
4 rr

*** Darwin 14x12 ***
Turn = 0.
  012345678901
0 .....f.r....
1 .h..........
2 .........fr.
3 .t..........
4 ............
5 ............
6 ............
7 ............
8 ............
9 f......ft..f
0 ...h.r....f.
1 ............
2 ............
3 ...h.h......

Turn = 1.
  012345678901
0 .....f......
1 .......r....
2 .h.......f.r
3 .t..........
4 ............
5 ............
6 ............
7 ............
8 ............
9 f......ft..f
0 ....rr....f.
1 ............
2 ...h........
3 ....h.......

Turn = 2.
  012345678901
0 .....f......
1 ............
2 .h.....r.f.r
3 .t..........
4 ............
5 ............
6 ............
7 ............
8 ............
9 f......ft..f
0 ....rr....f.
1 ...h........
2 ............
3 ...h........

*** Darwin 11x8 ***
Turn = 0.
  01234567
0 ..r.....
1 .....r.t
2 .....h..
3 ........
4 ........
5 .r......
6 ..h.....
7 ...t....
8 h.......
9 .....f..
0 ........

Turn = 4.
  01234567
0 ....rr..
1 ......tt
2 ..h.....
3 ........
4 ........
5 ........
6 ........
7 ...t....
8 ...t....
9 .r...f..
0 ........

*** Darwin 14x14 ***
Turn = 0.
  01234567890123
0 ..t...........
1 .r.f.....f....
2 ..............
3 r.........h...
4 .......r......
5 f.....f.......
6 .........h....
7 ......h.......
8 ....f.........
9 .f............
0 ....h.........
1 .....hr...f...
2 ....r......r..
3 h....h........

Turn = 1.
  01234567890123
0 ..t...........
1 ...f.....f....
2 .r............
3 .........h....
4 r.......r.....
5 f.....f.......
6 ........h.....
7 .....h........
8 ....f.........
9 .f............
0 .....h........
1 ....r..r..f...
2 ....r.....r...
3 h...h.........

Turn = 2.
  01234567890123
0 ..t...........
1 ...f.....f....
2 ..............
3 .r......h.....
4 r........r....
5 ......f.......
6 r......h......
7 ....h.........
8 ....f.........
9 .f............
0 ......h.......
1 ...rr...r.f...
2 .........r....
3 h..h..........

Turn = 3.
  01234567890123
0 ..t...........
1 ...f.....f....
2 ..............
3 .......h......
4 .r........r...
5 r.....f.......
6 ......h.......
7 r..h..........
8 ....f.........
9 .f............
0 ....r..h......
1 ..r......rf...
2 ........r.....
3 h.h...........

Turn = 4.
  01234567890123
0 ..t...........
1 ...f.....f....
2 ..............
3 ......h.......
4 ...........r..
5 .r....f.......
6 r....h........
7 ..h...........
8 r...f.........
9 .f..r.........
0 ........h.....
1 .r.......r....
2 .......r..r...
3 hh............

Turn = 5.
  01234567890123
0 ..t...........
1 ...f.....f....
2 ..............
3 .....h........
4 ............r.
5 ......f.......
6 .r..h.........
7 rh............
8 ....r.........
9 rf..r.........
0 .........h....
1 r.........r...
2 ......r.......
3 hh........r...

Turn = 6.
  01234567890123
0 ..t...........
1 ...f.....f....
2 ..............
3 ....h.........
4 .............r
5 ......f.......
6 .r.h..........
7 r.............
8 r...r.........
9 .f..r.........
0 r.........h...
1 r..........r..
2 .....r........
3 hh........r...

Turn = 7.
  01234567890123
0 ..t...........
1 ...f.....f....
2 ..............
3 ...h..........
4 .............r
5 ......f.......
6 ..h...........
7 rr............
8 ...r..........
9 rf.r..........
0 r..........h..
1 r...........r.
2 ....r.........
3 hh.......r....

Turn = 8.
  01234567890123
0 ..t...........
1 ...f.....f....
2 ..............
3 ..h...........
4 ..............
5 ......f......r
6 rh............
7 ..............
8 .rr...........
9 rfr...........
0 .r..........h.
1 r............r
2 ...r..........
3 hh......r.....

Turn = 9.
  01234567890123
0 ..t...........
1 ...f.....f....
2 ..............
3 .h............
4 ..............
5 r.....f.......
6 h............r
7 ..............
8 .rr...........
9 rrr...........
0 r.r..........h
1 .............r
2 ..r...........
3 hh.....r......

Turn = 10.
  01234567890123
0 ..t...........
1 ...f.....f....
2 ..............
3 h.............
4 r.............
5 ......f.......
6 h.............
7 .............r
8 rrr...........
9 rrr...........
0 ...r.........h
1 ..............
2 .r...........r
3 hh....r.......

Turn = 11.
  01234567890123
0 ..t...........
1 ...f.....f....
2 ..............
3 r.............
4 r.............
5 ......f.......
6 h.............
7 r.............
8 rr.r.........r
9 .rr...........
0 ....r........h
1 ..............
2 r.............
3 hh...r.......r

Turn = 12.
  01234567890123
0 ..t...........
1 ...f.....f....
2 ..............
3 r.............
4 r.............
5 ......f.......
6 r.............
7 rr............
8 r...r.........
9 .r...........r
0 ..r..r.......h
1 ..............
2 r.............
3 hh..r........r

Turn = 13.
  01234567890123
0 ..t...........
1 ...f.....f....
2 r.............
3 ..............
4 .r............
5 ......f.......
6 rr............
7 r.............
8 rr...r........
9 .............r
0 ......r......r
1 ..r...........
2 r.............
3 rh.r........r.

Turn = 14.
  01234567890123
0 ..t...........
1 r..f.....f....
2 ..............
3 ..............
4 ..r...........
5 rr....f.......
6 ..............
7 rr............
8 .r....r.......
9 .............r
0 .......r.....r
1 ..............
2 r.r...........
3 rrr........r..

Turn = 15.
  01234567890123
0 r.t...........
1 ...f.....f....
2 ..............
3 ..............
4 rr.r..........
5 ......f.......
6 r.............
7 ..r...........
8 r......r......
9 ............r.
0 ........r....r
1 ..............
2 r.r...........
3 rrr.......r...

Turn = 16.
  01234567890123
0 r.t...........
1 ...f.....f....
2 ..............
3 rr............
4 ....r.........
5 r.....f.......
6 ..............
7 ...r..........
8 r.......r.....
9 ...........r..
0 .........r....
1 .............r
2 rrr...........
3 rr.......r....

Turn = 17.
  01234567890123
0 r.t...........
1 ...f.....f....
2 rr............
3 ..............
4 r....r........
5 ......f.......
6 ..............
7 r...r.........
8 .........r....
9 ..........r...
0 ..........r...
1 ..r...........
2 rr...........r
3 rr......r.....

Turn = 18.
  01234567890123
0 ..t...........
1 rr.f.....f....
2 r.............
3 r.............
4 ......r.......
5 ......f.......
6 r.............
7 .....r........
8 ..........r...
9 .........r....
0 ..r........r..
1 ..............
2 rr............
3 rr.....r.....r

Turn = 19.
  01234567890123
0 .rt...........
1 r..f.....f....
2 r.............
3 r.............
4 .......r......
5 r.....f.......
6 ..............
7 ......r.......
8 ...........r..
9 ..r.....r.....
0 ............r.
1 ..............
2 r.r...........
3 rr....r......r

Turn = 20.
  01234567890123
0 .tt...........
1 r..f.....f....
2 r.............
3 .r............
4 r.......r.....
5 ......f.......
6 ..............
7 .......r......
8 ..r.........r.
9 .......r......
0 .............r
1 ..............
2 r..r..........
3 r.r..r......r.

*** Darwin 3x7 ***
Turn = 0.
  0123456
0 r.t.r.t
1 t.f...f
2 ..ht.hr

Turn = 1.
  0123456
0 .rtr..t
1 t.f...f
2 ..hthr.

Turn = 2.
  0123456
0 .rrr..t
1 t.f...f
2 ..htrr.

Turn = 3.
  0123456
0 .rr...t
1 t.fr..f
2 ..trrr.

Turn = 4.
  0123456
0 ..r...t
1 trrr.rt
2 ..trr..

Turn = 5.
  0123456
0 ..r..rt
1 t.r.r.t
2 .rtrr..

Turn = 6.
  0123456
0 ...r.rt
1 t..r.tt
2 .rttt..

Turn = 7.
  0123456
0 ....rrr
1 t...rtt
2 .rrrr..

Turn = 8.
  0123456
0 ....rrr
1 t...rrt
2 .rrr.r.

Turn = 9.
  0123456
0 ....rrr
1 trrrrrt
2 ......r

Turn = 10.
  0123456
0 .rrr.rt
1 t..r..t
2 ....rrr

Turn = 11.
  0123456
0 .rrr.rt
1 t...r.t
2 ....rrr

Turn = 12.
  0123456
0 .rr.r.t
1 t..r.tt
2 ....rrr

Turn = 13.
  0123456
0 ..rr..t
1 tr...tr
2 ...rrrr

*** Darwin 17x3 ***
Turn = 0.
  012
0 h.f
1 .h.
2 ...
3 ..t
4 f.f
5 ..r
6 .r.
7 ff.
8 ...
9 .h.
0 f..
1 ...
2 ...
3 r..
4 ...
5 .ft
6 ...

Turn = 3.
  012
0 ..f
1 ..h
2 ...
3 h.t
4 f.t
5 ...
6 rr.
7 .rr
8 ...
9 ..h
0 r..
1 r..
2 ...
3 ...
4 ...
5 .tt
6 ...

*** Darwin 13x5 ***
Turn = 0.
  01234
0 .t..f
1 .....
2 .ft..
3 ..t..
4 .....
5 .r...
6 .....
7 ..t.t
8 .t...
9 ..f..
0 ....r
1 h...r
2 t....

Turn = 2.
  01234
0 .t..f
1 .....
2 .tt..
3 .rt..
4 .....
5 .....
6 .....
7 ..t.t
8 .t...
9 ..f..
0 ...r.
1 ..hr.
2 t....

*** Darwin 10x8 ***
Turn = 0.
  01234567
0 ........
1 h.......
2 ........
3 rh......
4 ....t...
5 ........
6 .....f..
7 ........
8 ........
9 ........

Turn = 3.
  01234567
0 ........
1 r.......
2 r.......
3 h.......
4 ....t...
5 ........
6 .....f..
7 ........
8 ........
9 ........

Turn = 6.
  01234567
0 ........
1 r.......
2 ..r.....
3 h.......
4 ....t...
5 ........
6 .....f..
7 ........
8 ........
9 ........

Turn = 9.
  01234567
0 .r......
1 ........
2 .....r..
3 h.......
4 ....t...
5 ........
6 .....f..
7 ........
8 ........
9 ........

Turn = 12.
  01234567
0 ....r...
1 ........
2 .......r
3 h.......
4 ....t...
5 ........
6 .....f..
7 ........
8 ........
9 ........

Turn = 15.
  01234567
0 ......rr
1 ........
2 ........
3 h.......
4 ....t...
5 ........
6 .....f..
7 ........
8 ........
9 ........

Turn = 18.
  01234567
0 ......r.
1 ......r.
2 ........
3 h.......
4 ....t...
5 ........
6 .....f..
7 ........
8 ........
9 ........

*** Darwin 1x13 ***
Turn = 0.
  0123456789012
0 fhthhrh..hrft

Turn = 1.
  0123456789012
0 ftthhrr..rrft

Turn = 2.
  0123456789012
0 ftthhr.r.rrft

Turn = 3.
  0123456789012
0 ftthhr..rrrft

Turn = 4.
  0123456789012
0 fttth.r.rrrtt

Turn = 5.
  0123456789012
0 ttttt..rrrrtt

Turn = 6.
  0123456789012
0 ttttt..rrrrtt

Turn = 7.
  0123456789012
0 ttttt..rrrttt

Turn = 8.
  0123456789012
0 ttttt..rrtttt

Turn = 9.
  0123456789012
0 ttttt..rrtttt

Turn = 10.
  0123456789012
0 ttttt.rr.tttt

Turn = 11.
  0123456789012
0 tttttrr..tttt

Turn = 12.
  0123456789012
0 ttttrrr..tttt

Turn = 13.
  0123456789012
0 ttttrrr..tttt

Turn = 14.
  0123456789012
0 tttttrr..tttt

Turn = 15.
  0123456789012
0 tttttrr..tttt

Turn = 16.
  0123456789012
0 tttttt.r.tttt
