*** Darwin 12x3 ***
Turn = 0.
  012
0 .t.
1 ...
2 tr.
3 ...
4 ...
5 ...
6 ...
7 .h.
8 r..
9 ...
0 ...
1 t..

Turn = 5.
  012
0 .t.
1 ...
2 tt.
3 rh.
4 ...
5 ...
6 ...
7 ...
8 ...
9 ...
0 ...
1 t..

*** Darwin 12x7 ***
Turn = 0.
  0123456
0 .......
1 .......
2 .......
3 .......
4 .......
5 .......
6 .......
7 ......r
8 ...r...
9 .......
0 .......
1 ..f....

Turn = 2.
  0123456
0 .......
1 .......
2 .......
3 .......
4 .......
5 .......
6 .......
7 .......
8 .....r.
9 ......r
0 .......
1 ..f....

*** Darwin 2x9 ***
Turn = 0.
  012345678
0 fr.....f.
1 ..tr.h...

Turn = 3.
  012345678
0 r......f.
1 .rt.rr...

Turn = 6.
  012345678
0 ..r...rf.
1 r.r...r..

Turn = 9.
  012345678
0 rr.....rr
1 .....r..r

*** Darwin 9x2 ***
Turn = 0.
  01
0 h.
1 t.
2 r.
3 r.
4 ..
5 f.
6 t.
7 .t
8 .r

Turn = 2.
  01
0 h.
1 r.
2 r.
3 r.
4 ..
5 t.
6 t.
7 .t
8 .t

*** Darwin 14x14 ***
Turn = 0.
  01234567890123
0 ..............
1 .h..fh.....f..
2 ..............
3 ..............
4 ..............
5 ..............
6 ..............
7 ......r.......
8 ..............
9 ..............
0 .............h
1 ..............
2 ...r...t......
3 ..............

Turn = 2.
  01234567890123
0 ..............
1 ...hf..h...f..
2 ..............
3 ..............
4 ..............
5 ......r.......
6 ..............
7 ..............
8 ..............
9 ..............
0 ...r.........h
1 ..............
2 .......t......
3 ..............

Turn = 4.
  01234567890123
0 ..............
1 ...hf....h.f..
2 ..............
3 ......r.......
4 ..............
5 ..............
6 ..............
7 ..............
8 ...r..........
9 ..............
0 .............h
1 ..............
2 .......t......
3 ..............

Turn = 6.
  01234567890123
0 ..............
1 ...hf.r...hf..
2 ..............
3 ..............
4 ..............
5 ..............
6 ...r..........
7 ..............
8 ..............
9 ..............
0 .............h
1 ..............
2 .......t......
3 ..............

Turn = 8.
  01234567890123
0 ......r.......
1 ...hf.....hf..
2 ..............
3 ..............
4 ...r..........
5 ..............
6 ..............
7 ..............
8 ..............
9 ..............
0 .............h
1 ..............
2 .......t......
3 ..............

*** Darwin 3x13 ***
Turn = 0.
  0123456789012
0 tr.t......r..
1 r...t........
2 .......r.f...

Turn = 2.
  0123456789012
0 t.tt...rr....
1 t...t........
2 .........f...

Turn = 4.
  0123456789012
0 t.tt...r.....
1 t...t...r....
2 .........f...

Turn = 6.
  0123456789012
0 t.tt.........
1 t...t........
2 .......rrf...

Turn = 8.
  0123456789012
0 t.tt.........
1 t...t...r....
2 ......r..f...

Turn = 10.
  0123456789012
0 t.tt....r....
1 t...t........
2 ....r....f...

*** Darwin 2x4 ***
Turn = 0.
  0123
0 .tr.
1 r.rt

Turn = 1.
  0123
0 .tr.
1 r.rt

Turn = 2.
  0123
0 .tt.
1 .rtt

Turn = 3.
  0123
0 .tr.
1 .rtt

Turn = 4.
  0123
0 .trr
1 .r.t

Turn = 5.
  0123
0 .trr
1 ..rt

Turn = 6.
  0123
0 .trr
1 ..rr

Turn = 7.
  0123
0 .trr
1 ..rr

*** Darwin 10x4 ***
Turn = 0.
  0123
0 ....
1 ....
2 ....
3 ....
4 h...
5 ....
6 ....
7 ....
8 ....
9 ....

Turn = 8.
  0123
0 ....
1 ....
2 ....
3 ....
4 ....
5 ....
6 ....
7 ....
8 ....
9 h...

*** Darwin 12x2 ***
Turn = 0.
  01
0 rf
1 ..
2 ..
3 .r
4 ..
5 ..
6 .t
7 ..
8 ..
9 ..
0 ..
1 ..

Turn = 1.
  01
0 rf
1 ..
2 ..
3 ..
4 .r
5 ..
6 .t
7 ..
8 ..
9 ..
0 ..
1 ..

Turn = 2.
  01
0 rr
1 ..
2 ..
3 ..
4 ..
5 .r
6 .t
7 ..
8 ..
9 ..
0 ..
1 ..

*** Darwin 11x8 ***
Turn = 0.
  01234567
0 ........
1 ........
2 h.......
3 .t......
4 ..t....t
5 ....r...
6 ........
7 .....h..
8 h.......
9 ........
0 ......h.

Turn = 4.
  01234567
0 ........
1 ........
2 ........
3 .t......
4 ..t....t
5 .......r
6 h.......
7 .h......
8 ....h...
9 ........
0 ......h.

*** Darwin 9x9 ***
Turn = 0.
  012345678
0 .........
1 .........
2 .........
3 h........
4 .f.......
5 .........
6 .........
7 .........
8 .........

Turn = 2.
  012345678
0 .........
1 .........
2 .........
3 .........
4 .f.......
5 h........
6 .........
7 .........
8 .........

Turn = 4.
  012345678
0 .........
1 .........
2 .........
3 .........
4 .f.......
5 .........
6 .........
7 h........
8 .........

Turn = 6.
  012345678
0 .........
1 .........
2 .........
3 .........
4 .f.......
5 .........
6 .........
7 .........
8 h........

*** Darwin 10x15 ***
Turn = 0.
  012345678901234
0 ...............
1 ...............
2 ...............
3 .............t.
4 ...............
5 ...............
6 ...............
7 t..............
8 ...............
9 ...............

Turn = 7.
  012345678901234
0 ...............
1 ...............
2 ...............
3 .............t.
4 ...............
5 ...............
6 ...............
7 t..............
8 ...............
9 ...............
